TP1/WaveForms/Ej2Scope.csv

#Digilent WaveForms Oscilloscope Acquisition
#Device Name: EExplorer
#Serial Number: SN:210151AA5B7E
#Date Time: 2020-08-24 01:50:26.996
#Sample rate: 2e+07Hz
#Samples: 8192
#Trigger: Source: Channel 1 Type: Edge Condition: Rising Level: 0 V Hyst.: Auto HoldOff: 0 s
#Channel 1: Range: 2 V/div Offset: 0 V Attenuation: 1 X
#Channel 2: Range: 2 V/div Offset: 0 V Attenuation: 1 X
#Wavegen Channel 1: Running
#Mode: Simple
#Type: Square
#Frequency: 8 kHz
#Period: 125 us
#Amplitude: 6 V
#Offset: 0 V
#Symmetry: 50 %
#Phase: 0 °

Time (s),Channel 1 (V),Channel 2 (V)
-0.0002047525916743542,-6.061458896654869,-3.96656389129
-0.0002047025916743542,6.015884313081894,5.825617594000731
-0.0002046525916743542,6.037684571583224,5.825617594000731
-0.0002046025916743542,6.037684571583224,5.825617594000731
-0.0002045525916743542,6.037684571583224,5.825617594000731
-0.0002045025916743542,6.015884313081904,5.825617594000731
-0.0002044525916743542,6.015884313081894,5.825617594000731
-0.0002044025916743542,6.037684571583224,5.825617594000731
-0.0002043525916743542,6.037684571583224,5.825617594000731
-0.0002043025916743542,6.037684571583224,5.825617594000731
-0.0002042525916743542,6.037684571583224,5.825617594000731
-0.0002042025916743542,6.037684571583224,5.825617594000731
-0.0002041525916743542,6.037684571583224,5.825617594000731
-0.0002041025916743542,6.037684571583224,5.825617594000731
-0.0002040525916743542,6.015884313081894,5.825617594000731
-0.0002040025916743542,6.037684571583224,5.825617594000731
-0.0002039525916743542,6.015884313081894,5.825617594000731
-0.0002039025916743542,6.015884313081894,5.825617594000731
-0.0002038525916743542,6.015884313081894,5.825617594000731
-0.0002038025916743542,6.015884313081894,5.845849373929017
-0.0002037525916743542,6.015884313081894,5.825617594000731
-0.0002037025916743542,6.015884313081894,5.825617594000731
-0.0002036525916743542,6.015884313081894,5.825617594000731
-0.0002036025916743542,6.015884313081894,5.845849373929017
-0.0002035525916743542,6.015884313081894,5.825617594000731
-0.0002035025916743542,6.015884313081904,5.82561759400074
-0.0002034525916743542,6.037684571583214,5.845849373929008
-0.0002034025916743542,6.037684571583224,5.845849373929017
-0.0002033525916743542,6.037684571583224,5.825617594000731
-0.0002033025916743542,6.037684571583224,5.825617594000731
-0.0002032525916743542,6.037684571583224,5.825617594000731
-0.0002032025916743542,6.037684571583224,5.845849373929017
-0.0002031525916743542,6.015884313081894,5.845849373929017
-0.0002031025916743542,6.015884313081894,5.825617594000731
-0.0002030525916743542,6.015884313081894,5.845849373929017
-0.0002030025916743542,6.015884313081894,5.825617594000731
-0.0002029525916743542,6.015884313081894,5.845849373929017
-0.0002029025916743542,6.015884313081894,5.845849373929017
-0.0002028525916743542,6.015884313081894,5.845849373929017
-0.0002028025916743542,6.015884313081894,5.845849373929017
-0.0002027525916743542,6.015884313081894,5.845849373929017
-0.0002027025916743542,6.015884313081894,5.845849373929017
-0.0002026525916743542,6.015884313081894,5.845849373929017
-0.0002026025916743542,6.015884313081894,5.845849373929017
-0.0002025525916743542,6.037684571583224,5.845849373929017
-0.0002025025916743542,6.037684571583224,5.845849373929017
-0.0002024525916743542,6.037684571583224,5.845849373929017
-0.0002024025916743542,6.037684571583224,5.845849373929017
-0.0002023525916743542,6.037684571583224,5.845849373929017
-0.0002023025916743542,6.037684571583224,5.845849373929017
-0.0002022525916743542,6.037684571583224,5.845849373929017
-0.0002022025916743542,6.015884313081894,5.866081153857304
-0.0002021525916743542,6.015884313081894,5.845849373929017
-0.0002021025916743542,6.037684571583224,5.866081153857304
-0.0002020525916743542,6.015884313081894,5.866081153857304
-0.0002020025916743542,6.015884313081894,5.845849373929017
-0.0002019525916743542,6.015884313081894,5.866081153857304
-0.0002019025916743542,6.015884313081894,5.866081153857304
-0.0002018525916743542,6.015884313081894,5.845849373929017
-0.0002018025916743542,6.015884313081894,5.845849373929017
-0.0002017525916743542,6.015884313081894,5.866081153857304
-0.0002017025916743542,6.015884313081894,5.866081153857304
-0.0002016525916743542,6.015884313081894,5.866081153857304
-0.0002016025916743542,6.015884313081894,5.866081153857304
-0.0002015525916743542,6.037684571583224,5.866081153857304
-0.0002015025916743542,6.037684571583224,5.866081153857304
-0.0002014525916743542,6.037684571583224,5.866081153857304
-0.0002014025916743542,6.037684571583224,5.866081153857304
-0.0002013525916743542,6.037684571583224,5.866081153857304
-0.0002013025916743542,6.015884313081894,5.866081153857304
-0.0002012525916743542,6.015884313081904,5.866081153857304
-0.0002012025916743542,6.037684571583214,5.866081153857304
-0.0002011525916743542,6.015884313081904,5.866081153857304
-0.0002011025916743542,6.015884313081894,5.866081153857304
-0.0002010525916743542,6.015884313081894,5.866081153857304
-0.0002010025916743542,6.037684571583224,5.866081153857304
-0.0002009525916743542,6.015884313081894,5.866081153857304
-0.0002009025916743542,6.015884313081894,5.866081153857304
-0.0002008525916743542,6.015884313081894,5.866081153857304
-0.0002008025916743542,6.015884313081894,5.866081153857304
-0.0002007525916743542,6.015884313081894,5.866081153857304
-0.0002007025916743542,6.015884313081894,5.866081153857304
-0.0002006525916743542,6.037684571583224,5.866081153857304
-0.0002006025916743542,6.037684571583224,5.866081153857304
-0.0002005525916743542,6.037684571583224,5.866081153857304
-0.0002005025916743542,6.037684571583224,5.866081153857304
-0.0002004525916743542,6.037684571583224,5.866081153857304
-0.0002004025916743542,6.037684571583224,5.866081153857304
-0.0002003525916743542,6.037684571583224,5.88631293378559
-0.0002003025916743542,6.037684571583224,5.88631293378559
-0.0002002525916743542,6.015884313081894,5.866081153857304
-0.0002002025916743542,6.037684571583224,5.866081153857313
-0.0002001525916743542,6.037684571583214,5.886312933785582
-0.0002001025916743542,6.015884313081904,5.866081153857313
-0.0002000525916743542,6.015884313081894,5.866081153857304
-0.0002000025916743542,6.015884313081894,5.866081153857304
-0.0001999525916743542,6.015884313081894,5.866081153857304
-0.0001999025916743542,6.015884313081894,5.866081153857304
-0.0001998525916743542,6.015884313081894,5.866081153857304
-0.0001998025916743542,6.015884313081894,5.866081153857304
-0.0001997525916743542,6.037684571583224,5.88631293378559
-0.0001997025916743542,6.037684571583224,5.88631293378559
-0.0001996525916743542,6.037684571583224,5.88631293378559
-0.0001996025916743542,6.015884313081894,5.88631293378559
-0.0001995525916743542,6.037684571583224,5.88631293378559
-0.0001995025916743542,6.015884313081894,5.88631293378559
-0.0001994525916743542,6.037684571583224,5.88631293378559
-0.0001994025916743542,6.015884313081894,5.88631293378559
-0.0001993525916743542,6.015884313081894,5.88631293378559
-0.0001993025916743542,6.015884313081894,5.88631293378559
-0.0001992525916743542,6.037684571583224,5.906544713713878
-0.0001992025916743542,6.037684571583224,5.88631293378559
-0.0001991525916743542,6.015884313081894,5.88631293378559
-0.0001991025916743542,6.037684571583224,5.88631293378559
-0.0001990525916743542,6.015884313081894,5.88631293378559
-0.0001990025916743542,6.015884313081904,5.88631293378559
-0.0001989525916743542,6.037684571583214,5.88631293378559
-0.0001989025916743542,6.037684571583224,5.88631293378559
-0.0001988525916743542,6.037684571583224,5.88631293378559
-0.0001988025916743542,6.037684571583224,5.88631293378559
-0.0001987525916743542,6.037684571583224,5.88631293378559
-0.0001987025916743542,6.037684571583224,5.88631293378559
-0.0001986525916743542,6.037684571583224,5.88631293378559
-0.0001986025916743542,6.037684571583224,5.88631293378559
-0.0001985525916743542,6.037684571583224,5.88631293378559
-0.0001985025916743542,6.037684571583224,5.88631293378559
-0.0001984525916743542,6.037684571583224,5.88631293378559
-0.0001984025916743542,6.037684571583224,5.88631293378559
-0.0001983525916743542,6.037684571583224,5.906544713713878
-0.0001983025916743542,6.037684571583224,5.88631293378559
-0.0001982525916743542,6.037684571583224,5.88631293378559
-0.0001982025916743542,6.037684571583224,5.906544713713878
-0.0001981525916743542,6.015884313081894,5.88631293378559
-0.0001981025916743542,6.015884313081894,5.88631293378559
-0.0001980525916743542,6.037684571583224,5.906544713713878
-0.0001980025916743542,6.037684571583224,5.906544713713878
-0.0001979525916743542,6.037684571583214,5.906544713713878
-0.0001979025916743542,6.015884313081904,5.906544713713869
-0.0001978525916743542,6.037684571583214,5.886312933785599
-0.0001978025916743542,6.037684571583224,5.906544713713869
-0.0001977525916743542,6.037684571583224,5.906544713713878
-0.0001977025916743542,6.059484830084554,5.906544713713878
-0.0001976525916743542,6.037684571583224,5.906544713713878
-0.0001976025916743542,6.037684571583224,5.906544713713878
-0.0001975525916743542,6.037684571583224,5.906544713713878
-0.0001975025916743542,6.037684571583224,5.906544713713878
-0.0001974525916743542,6.037684571583224,5.88631293378559
-0.0001974025916743542,6.015884313081894,5.906544713713878
-0.0001973525916743542,6.037684571583224,5.906544713713878
-0.0001973025916743542,6.015884313081894,5.906544713713878
-0.0001972525916743542,6.037684571583224,5.906544713713878
-0.0001972025916743542,6.015884313081894,5.906544713713878
-0.0001971525916743542,6.015884313081894,5.88631293378559
-0.0001971025916743542,6.015884313081894,5.88631293378559
-0.0001970525916743542,6.015884313081894,5.88631293378559
-0.0001970025916743542,6.015884313081894,5.88631293378559
-0.0001969525916743542,6.015884313081894,5.88631293378559
-0.0001969025916743542,6.037684571583224,5.906544713713878
-0.0001968525916743542,6.037684571583224,5.906544713713878
-0.0001968025916743542,6.037684571583224,5.906544713713878
-0.0001967525916743542,6.037684571583224,5.906544713713878
-0.0001967025916743542,6.059484830084545,5.906544713713878
-0.0001966525916743542,6.037684571583224,5.906544713713878
-0.0001966025916743542,6.037684571583224,5.906544713713878
-0.0001965525916743542,6.037684571583224,5.906544713713878
-0.0001965025916743542,6.037684571583224,5.906544713713878
-0.0001964525916743542,6.037684571583224,5.926776493642164
-0.0001964025916743542,6.037684571583224,5.906544713713878
-0.0001963525916743542,6.037684571583224,5.926776493642164
-0.0001963025916743542,6.037684571583224,5.906544713713878
-0.0001962525916743542,6.015884313081894,5.906544713713878
-0.0001962025916743542,6.037684571583224,5.906544713713878
-0.0001961525916743542,6.015884313081894,5.906544713713878
-0.0001961025916743542,6.015884313081894,5.906544713713878
-0.0001960525916743542,6.037684571583224,5.906544713713878
-0.0001960025916743542,6.037684571583224,5.906544713713878
-0.0001959525916743542,6.037684571583224,5.906544713713878
-0.0001959025916743542,6.037684571583224,5.906544713713878
-0.0001958525916743542,6.037684571583224,5.906544713713878
-0.0001958025916743542,6.037684571583224,5.906544713713878
-0.0001957525916743542,6.015884313081894,5.926776493642164
-0.0001957025916743542,6.037684571583214,5.906544713713878
-0.0001956525916743542,6.015884313081904,5.906544713713878
-0.0001956025916743542,6.037684571583214,5.906544713713878
-0.0001955525916743542,6.037684571583224,5.926776493642164
-0.0001955025916743542,6.015884313081894,5.926776493642164
-0.0001954525916743542,6.037684571583224,5.906544713713878
-0.0001954025916743542,6.037684571583224,5.906544713713878
-0.0001953525916743542,6.037684571583224,5.906544713713878
-0.0001953025916743542,6.015884313081894,5.906544713713878
-0.0001952525916743542,6.015884313081894,5.906544713713878
-0.0001952025916743542,6.015884313081894,5.906544713713878
-0.0001951525916743542,6.037684571583224,5.906544713713878
-0.0001951025916743542,6.015884313081894,5.906544713713878
-0.0001950525916743542,6.037684571583224,5.906544713713878
-0.0001950025916743542,6.037684571583224,5.906544713713878
-0.0001949525916743542,6.037684571583224,5.906544713713878
-0.0001949025916743542,6.037684571583224,5.926776493642164
-0.0001948525916743542,6.037684571583224,5.906544713713878
-0.0001948025916743542,6.037684571583224,5.906544713713878
-0.0001947525916743542,6.015884313081894,5.926776493642164
-0.0001947025916743542,6.015884313081894,5.906544713713878
-0.0001946525916743542,6.015884313081894,5.906544713713878
-0.0001946025916743542,6.015884313081894,5.906544713713886
-0.0001945525916743542,6.015884313081894,5.926776493642155
-0.0001945025916743542,6.015884313081894,5.906544713713886
-0.0001944525916743542,6.037684571583214,5.926776493642155
-0.0001944025916743542,6.015884313081894,5.906544713713878
-0.0001943525916743542,6.015884313081894,5.906544713713878
-0.0001943025916743542,6.015884313081894,5.906544713713878
-0.0001942525916743542,6.037684571583224,5.906544713713878
-0.0001942025916743542,6.015884313081894,5.906544713713878
-0.0001941525916743542,6.015884313081894,5.926776493642164
-0.0001941025916743542,6.037684571583224,5.906544713713878
-0.0001940525916743542,6.037684571583224,5.926776493642164
-0.0001940025916743542,6.037684571583224,5.906544713713878
-0.0001939525916743542,6.037684571583224,5.906544713713878
-0.0001939025916743542,6.037684571583224,5.906544713713878
-0.0001938525916743542,6.015884313081894,5.926776493642164
-0.0001938025916743542,6.015884313081894,5.906544713713878
-0.0001937525916743542,6.015884313081894,5.926776493642164
-0.0001937025916743542,6.015884313081894,5.906544713713878
-0.0001936525916743542,6.015884313081894,5.906544713713878
-0.0001936025916743542,6.015884313081894,5.906544713713878
-0.0001935525916743542,6.015884313081894,5.926776493642164
-0.0001935025916743542,6.015884313081894,5.906544713713886
-0.0001934525916743542,6.015884313081894,5.926776493642155
-0.0001934025916743542,6.015884313081894,5.906544713713886
-0.0001933525916743542,6.015884313081894,5.906544713713878
-0.0001933025916743542,6.015884313081894,5.906544713713878
-0.0001932525916743542,6.015884313081894,5.906544713713878
-0.0001932025916743542,6.015884313081894,5.926776493642164
-0.0001931525916743542,6.037684571583224,5.906544713713878
-0.0001931025916743542,6.037684571583224,5.906544713713878
-0.0001930525916743542,6.015884313081894,5.926776493642164
-0.0001930025916743542,6.015884313081894,5.926776493642164
-0.0001929525916743542,6.015884313081894,5.926776493642164
-0.0001929025916743542,6.015884313081894,5.926776493642164
-0.0001928525916743542,6.015884313081894,5.926776493642164
-0.0001928025916743542,6.015884313081894,5.906544713713878
-0.0001927525916743542,6.015884313081894,5.906544713713878
-0.0001927025916743542,6.015884313081894,5.926776493642164
-0.0001926525916743542,6.015884313081894,5.926776493642164
-0.0001926025916743542,6.015884313081894,5.926776493642164
-0.0001925525916743542,6.015884313081894,5.926776493642164
-0.0001925025916743542,6.015884313081894,5.906544713713878
-0.0001924525916743542,6.015884313081894,5.926776493642164
-0.0001924025916743542,6.037684571583224,5.906544713713878
-0.0001923525916743542,6.015884313081894,5.926776493642164
-0.0001923025916743542,6.015884313081894,5.926776493642164
-0.0001922525916743542,6.037684571583214,5.906544713713886
-0.0001922025916743542,6.037684571583224,5.906544713713878
-0.0001921525916743542,6.015884313081894,5.926776493642164
-0.0001921025916743542,6.037684571583224,5.906544713713878
-0.0001920525916743542,6.015884313081894,5.926776493642164
-0.0001920025916743542,6.015884313081894,5.906544713713878
-0.0001919525916743542,6.015884313081894,5.906544713713878
-0.0001919025916743542,5.994084054580564,5.926776493642164
-0.0001918525916743542,6.015884313081894,5.906544713713878
-0.0001918025916743542,5.994084054580564,5.906544713713878
-0.0001917525916743542,6.015884313081894,5.926776493642164
-0.0001917025916743542,5.994084054580564,5.906544713713878
-0.0001916525916743542,5.994084054580564,5.906544713713878
-0.0001916025916743542,6.015884313081894,5.906544713713878
-0.0001915525916743542,6.015884313081894,5.906544713713878
-0.0001915025916743542,6.015884313081894,5.906544713713878
-0.0001914525916743542,6.015884313081894,5.906544713713878
-0.0001914025916743542,6.015884313081894,5.926776493642164
-0.0001913525916743542,6.015884313081894,5.926776493642164
-0.0001913025916743542,6.015884313081894,5.926776493642164
-0.0001912525916743542,6.015884313081904,5.926776493642155
-0.0001912025916743542,6.037684571583224,5.906544713713886
-0.0001911525916743542,6.037684571583224,5.926776493642155
-0.0001911025916743542,6.015884313081894,5.906544713713878
-0.0001910525916743542,6.037684571583224,5.906544713713878
-0.0001910025916743542,6.015884313081894,5.906544713713878
-0.0001909525916743542,6.015884313081894,5.906544713713878
-0.0001909025916743542,6.015884313081894,5.926776493642164
-0.0001908525916743542,6.015884313081894,5.926776493642164
-0.0001908025916743542,6.015884313081894,5.926776493642164
-0.0001907525916743542,6.015884313081894,5.906544713713878
-0.0001907025916743542,6.015884313081894,5.926776493642164
-0.0001906525916743542,6.015884313081894,5.906544713713878
-0.0001906025916743542,6.015884313081894,5.926776493642164
-0.0001905525916743542,6.015884313081894,5.926776493642164
-0.0001905025916743542,6.015884313081894,5.906544713713878
-0.0001904525916743542,6.015884313081894,5.926776493642164
-0.0001904025916743542,6.015884313081894,5.926776493642164
-0.0001903525916743542,6.015884313081894,5.926776493642164
-0.0001903025916743542,6.015884313081894,5.906544713713878
-0.0001902525916743542,6.037684571583224,5.906544713713878
-0.0001902025916743542,6.015884313081894,5.906544713713878
-0.0001901525916743542,6.015884313081894,5.926776493642164
-0.0001901025916743542,6.015884313081894,5.926776493642155
-0.0001900525916743542,6.015884313081894,5.906544713713886
-0.0001900025916743542,6.015884313081894,5.926776493642155
-0.0001899525916743542,5.994084054580564,5.926776493642164
-0.0001899025916743542,5.994084054580564,5.926776493642164
-0.0001898525916743542,5.994084054580564,5.906544713713878
-0.0001898025916743542,5.994084054580564,5.926776493642164
-0.0001897525916743542,5.994084054580564,5.926776493642164
-0.0001897025916743542,5.994084054580564,5.906544713713878
-0.0001896525916743542,5.994084054580564,5.906544713713878
-0.0001896025916743542,5.994084054580564,5.926776493642164
-0.0001895525916743542,5.994084054580564,5.926776493642164
-0.0001895025916743542,6.015884313081894,5.906544713713878
-0.0001894525916743542,6.015884313081894,5.906544713713878
-0.0001894025916743542,6.015884313081894,5.906544713713878
-0.0001893525916743542,6.015884313081894,5.906544713713878
-0.0001893025916743542,6.015884313081894,5.906544713713878
-0.0001892525916743542,6.015884313081894,5.926776493642164
-0.0001892025916743542,5.994084054580564,5.926776493642164
-0.0001891525916743542,6.015884313081894,5.926776493642164
-0.0001891025916743542,6.015884313081894,5.906544713713878
-0.0001890525916743542,6.015884313081894,5.926776493642164
-0.0001890025916743542,6.015884313081894,5.926776493642164
-0.0001889525916743542,6.015884313081894,5.926776493642164
-0.0001889025916743542,6.015884313081894,5.926776493642164
-0.0001888525916743542,5.994084054580564,5.926776493642164
-0.0001888025916743542,6.015884313081894,5.926776493642164
-0.0001887525916743542,6.015884313081894,5.926776493642164
-0.0001887025916743542,6.015884313081894,5.926776493642164
-0.0001886525916743542,6.015884313081894,5.926776493642164
-0.0001886025916743542,6.015884313081894,5.926776493642164
-0.0001885525916743542,6.015884313081894,5.926776493642164
-0.0001885025916743542,6.037684571583224,5.926776493642164
-0.0001884525916743542,6.037684571583224,5.926776493642164
-0.0001884025916743542,6.037684571583224,5.926776493642164
-0.0001883525916743542,6.015884313081894,5.926776493642164
-0.0001883025916743542,6.015884313081894,5.926776493642164
